{
  "id": "1463885",
  "name": "2019-by-health-annual-tree-mini-program",
  "font_family": "iconfont",
  "css_prefix_text": "icon",
  "description": "2019年周年庆",
  "glyphs": [
    {
      "icon_id": "11343443",
      "name": "lock",
      "font_class": "lock",
      "unicode": "e600",
      "unicode_decimal": 58880
    },
    {
      "icon_id": "11343448",
      "name": "phone",
      "font_class": "phone",
      "unicode": "e601",
      "unicode_decimal": 58881
    }
  ]
}
